RNA-seq data cleaning
…
write_csv(rare, file="data_clean/rare_genes.csv")
rare

# A tibble: 5,733 × 7
   ensembl_gene_id gene_biotype  symbol mean.CPM min.CPM max.CPM express.in.libs
   <chr>           <chr>         <list>    <dbl>   <dbl>   <dbl>           <int>
 1 ENSG00000000005 protein_codi… <chr>    0            0   0                   0
 2 ENSG00000001617 protein_codi… <chr>    0.164        0   0.855               2
 3 ENSG00000001626 protein_codi… <chr>    0.0786       0   0.786               1
 4 ENSG00000002745 protein_codi… <chr>    0.0319       0   0.319               1
 5 ENSG00000002746 protein_codi… <chr>    0            0   0                   0
 6 ENSG00000003137 protein_codi… <chr>    0.0376       0   0.376               1
 7 ENSG00000003249 protein_codi… <chr>    0            0   0                   0
 8 ENSG00000003989 protein_codi… <chr>    0            0   0                   0
 9 ENSG00000004776 protein_codi… <chr>    0            0   0                   0
10 ENSG00000004799 protein_codi… <chr>    0.171        0   1.71                1
# ℹ 5,723 more rows
…
